{
  "type": "minecraft:crafting_shaped",
  "pattern": [
    "BB",
    " S",
    " S"
  ],
  "key": {
    "B": {
      "item": "litchmod:waterbound_gem"
    },
    "S": {
      "item": "litchmod:obsidian_stick"
    }
  },
  "result": {
    "item": "litchmod:waterbound_hoe"
  }
}