{
  "type": "minecraft:crafting_shaped",
  "pattern": [
    "BB",
    "SB",
    "S "
  ],
  "key": {
    "B": {
      "item": "litchmod:waterbound_gem"
    },
    "S": {
      "item": "litchmod:obsidian_stick"
    }
  },
  "result": {
    "item": "litchmod:waterbound_axe"
  }
}