{
  "type": "minecraft:crafting_shaped",
  "pattern": [
    "BBB",
    "BBB",
    "BBB"
  ],
  "key": {
    "B": {
      "item": "litchmod:waterbound_gem"
    }
  },
  "result": {
    "item": "litchmod:waterbound_block"
  }
}