{
  "type": "minecraft:crafting_shaped",
  "pattern": [
    "BBB",
    "BXB",
    "BBB"
  ],
  "key": {
    "B": {
      "item": "minecraft:cobblestone"
    },
    "X": {
      "item": "litchmod:waterbound_gem"
    }
  },
  "result": {
    "item": "litchmod:element_conversion_unit"
  }
}