{
  "parent": "block/orientable",
  "textures": {
    "particle": "litchmod:blocks/element_conversion_unit_front_off",
    "up": "litchmod:blocks/element_conversion_unit_top",
    "down": "litchmod:blocks/element_conversion_unit_top",
    "north": "litchmod:blocks/element_conversion_unit_front_on",
    "east": "litchmod:blocks/element_conversion_unit_east",
    "south": "litchmod:blocks/element_conversion_unit_south",
    "west": "litchmod:blocks/element_conversion_unit_west"
  }
}